uart_wave.vcd
$version Generated by VerilatedVcd $end
$timescale 1ps $end
 $scope module tb_uart_tx $end
  $var wire 32 5 TICK_PERIOD [31:0] $end
  $var wire 1 / clk $end
  $var wire 1 0 rst_n $end
  $var wire 1 1 s_tick $end
  $var wire 1 2 tx_start $end
  $var wire 8 3 tx_data [7:0] $end
  $var wire 1 ( tx $end
  $var wire 1 ) tx_done $end
  $var wire 4 4 tick_counter [3:0] $end
  $scope module dut $end
   $var wire 1 / clk $end
   $var wire 1 0 rst_n $end
   $var wire 1 1 s_tick $end
   $var wire 1 2 tx_start $end
   $var wire 8 3 tx_data [7:0] $end
   $var wire 1 ( tx $end
   $var wire 1 ) tx_done $end
   $var wire 2 * current_state [1:0] $end
   $var wire 2 # next_state [1:0] $end
   $var wire 4 + current_count [3:0] $end
   $var wire 4 $ next_count [3:0] $end
   $var wire 3 , current_bit_count [2:0] $end
   $var wire 3 % next_bit_count [2:0] $end
   $var wire 8 - data_reg [7:0] $end
   $var wire 8 & next_data_reg [7:0] $end
   $var wire 1 . next_tx $end
   $var wire 1 ' next_tx_done $end
  $upscope $end
 $upscope $end
$enddefinitions $end


#0
b00 #
b0000 $
b000 %
b00000000 &
0'
0(
0)
b00 *
b0000 +
b000 ,
b00000000 -
0.
0/
00
01
02
b00000000 3
b0000 4
b00000000000000000000000000000100 5
#5
1(
1.
1/
b0001 4
#10
0/
#15
1/
b0010 4
#20
0/
10
#25
1/
b0011 4
#30
0/
#35
1/
11
b0000 4
#40
0/
#45
b01 #
b01010101 &
b01 *
b01010101 -
0.
1/
01
12
b01010101 3
b0001 4
#50
0/
#55
0(
1/
02
b0010 4
#60
0/
#65
1/
b0011 4
#70
0/
#75
b0001 $
1/
11
b0000 4
#80
0/
#85
b0001 +
1/
01
b0001 4
#90
0/
#95
1/
b0010 4
#100
0/
#105
1/
b0011 4
#110
0/
#115
b0010 $
1/
11
b0000 4
#120
0/
#125
b0010 +
1/
01
b0001 4
#130
0/
#135
1/
b0010 4
#140
0/
#145
1/
b0011 4
#150
0/
#155
b0011 $
1/
11
b0000 4
#160
0/
#165
b0011 +
1/
01
b0001 4
#170
0/
#175
1/
b0010 4
#180
0/
#185
1/
b0011 4
#190
0/
#195
b0100 $
1/
11
b0000 4
#200
0/
#205
b0100 +
1/
01
b0001 4
#210
0/
#215
1/
b0010 4
#220
0/
#225
1/
b0011 4
#230
0/
#235
b0101 $
1/
11
b0000 4
#240
0/
#245
b0101 +
1/
01
b0001 4
#250
0/
#255
1/
b0010 4
#260
0/
#265
1/
b0011 4
#270
0/
#275
b0110 $
1/
11
b0000 4
#280
0/
#285
b0110 +
1/
01
b0001 4
#290
0/
#295
1/
b0010 4
#300
0/
#305
1/
b0011 4
#310
0/
#315
b0111 $
1/
11
b0000 4
#320
0/
#325
b0111 +
1/
01
b0001 4
#330
0/
#335
1/
b0010 4
#340
0/
#345
1/
b0011 4
#350
0/
#355
b1000 $
1/
11
b0000 4
#360
0/
#365
b1000 +
1/
01
b0001 4
#370
0/
#375
1/
b0010 4
#380
0/
#385
1/
b0011 4
#390
0/
#395
b1001 $
1/
11
b0000 4
#400
0/
#405
b1001 +
1/
01
b0001 4
#410
0/
#415
1/
b0010 4
#420
0/
#425
1/
b0011 4
#430
0/
#435
b1010 $
1/
11
b0000 4
#440
0/
#445
b1010 +
1/
01
b0001 4
#450
0/
#455
1/
b0010 4
#460
0/
#465
1/
b0011 4
#470
0/
#475
b1011 $
1/
11
b0000 4
#480
0/
#485
b1011 +
1/
01
b0001 4
#490
0/
#495
1/
b0010 4
#500
0/
#505
1/
b0011 4
#510
0/
#515
b1100 $
1/
11
b0000 4
#520
0/
#525
b1100 +
1/
01
b0001 4
#530
0/
#535
1/
b0010 4
#540
0/
#545
1/
b0011 4
#550
0/
#555
b1101 $
1/
11
b0000 4
#560
0/
#565
b1101 +
1/
01
b0001 4
#570
0/
#575
1/
b0010 4
#580
0/
#585
1/
b0011 4
#590
0/
#595
b1110 $
1/
11
b0000 4
#600
0/
#605
b1110 +
1/
01
b0001 4
#610
0/
#615
1/
b0010 4
#620
0/
#625
1/
b0011 4
#630
0/
#635
b1111 $
1/
11
b0000 4
#640
0/
#645
b1111 +
1/
01
b0001 4
#650
0/
#655
1/
b0010 4
#660
0/
#665
1/
b0011 4
#670
0/
#675
b10 #
b0000 $
1/
11
b0000 4
#680
0/
#685
b10 *
b0000 +
1.
1/
01
b0001 4
#690
0/
#695
1(
1/
b0010 4
#700
0/
#705
1/
b0011 4
#710
0/
#715
b0001 $
1/
11
b0000 4
#720
0/
#725
b0001 +
1/
01
b0001 4
#730
0/
#735
1/
b0010 4
#740
0/
#745
1/
b0011 4
#750
0/
#755
b0010 $
1/
11
b0000 4
#760
0/
#765
b0010 +
1/
01
b0001 4
#770
0/
#775
1/
b0010 4
#780
0/
#785
1/
b0011 4
#790
0/
#795
b0011 $
1/
11
b0000 4
#800
0/
#805
b0011 +
1/
01
b0001 4
#810
0/
#815
1/
b0010 4
#820
0/
#825
1/
b0011 4
#830
0/
#835
b0100 $
1/
11
b0000 4
#840
0/
#845
b0100 +
1/
01
b0001 4
#850
0/
#855
1/
b0010 4
#860
0/
#865
1/
b0011 4
#870
0/
#875
b0101 $
1/
11
b0000 4
#880
0/
#885
b0101 +
1/
01
b0001 4
#890
0/
#895
1/
b0010 4
#900
0/
#905
1/
b0011 4
#910
0/
#915
b0110 $
1/
11
b0000 4
#920
0/
#925
b0110 +
1/
01
b0001 4
#930
0/
#935
1/
b0010 4
#940
0/
#945
1/
b0011 4
#950
0/
#955
b0111 $
1/
11
b0000 4
#960
0/
#965
b0111 +
1/
01
b0001 4
#970
0/
#975
1/
b0010 4
#980
0/
#985
1/
b0011 4
#990
0/
#995
b1000 $
1/
11
b0000 4
#1000
0/
#1005
b1000 +
1/
01
b0001 4
#1010
0/
#1015
1/
b0010 4
#1020
0/
#1025
1/
b0011 4
#1030
0/
#1035
b1001 $
1/
11
b0000 4
#1040
0/
#1045
b1001 +
1/
01
b0001 4
#1050
0/
#1055
1/
b0010 4
#1060
0/
#1065
1/
b0011 4
#1070
0/
#1075
b1010 $
1/
11
b0000 4
#1080
0/
#1085
b1010 +
1/
01
b0001 4
#1090
0/
#1095
1/
b0010 4
#1100
0/
#1105
1/
b0011 4
#1110
0/
#1115
b1011 $
1/
11
b0000 4
#1120
0/
#1125
b1011 +
1/
01
b0001 4
#1130
0/
#1135
1/
b0010 4
#1140
0/
#1145
1/
b0011 4
#1150
0/
#1155
b1100 $
1/
11
b0000 4
#1160
0/
#1165
b1100 +
1/
01
b0001 4
#1170
0/
#1175
1/
b0010 4
#1180
0/
#1185
1/
b0011 4
#1190
0/
#1195
b1101 $
1/
11
b0000 4
#1200
0/
#1205
b1101 +
1/
01
b0001 4
#1210
0/
#1215
1/
b0010 4
#1220
0/
#1225
1/
b0011 4
#1230
0/
#1235
b1110 $
1/
11
b0000 4
#1240
0/
#1245
b1110 +
1/
01
b0001 4
#1250
0/
#1255
1/
b0010 4
#1260
0/
#1265
1/
b0011 4
#1270
0/
#1275
b1111 $
1/
11
b0000 4
#1280
0/
#1285
b1111 +
1/
01
b0001 4
#1290
0/
#1295
1/
b0010 4
#1300
0/
#1305
1/
b0011 4
#1310
0/
#1315
b0000 $
b001 %
b00101010 &
1/
11
b0000 4
#1320
0/
#1325
b0000 +
b001 ,
b00101010 -
0.
1/
01
b0001 4
#1330
0/
#1335
0(
1/
b0010 4
#1340
0/
#1345
1/
b0011 4
#1350
0/
#1355
b0001 $
1/
11
b0000 4
#1360
0/
#1365
b0001 +
1/
01
b0001 4
#1370
0/
#1375
1/
b0010 4
#1380
0/
#1385
1/
b0011 4
#1390
0/
#1395
b0010 $
1/
11
b0000 4
#1400
0/
#1405
b0010 +
1/
01
b0001 4
#1410
0/
#1415
1/
b0010 4
#1420
0/
#1425
1/
b0011 4
#1430
0/
#1435
b0011 $
1/
11
b0000 4
#1440
0/
#1445
b0011 +
1/
01
b0001 4
#1450
0/
#1455
1/
b0010 4
#1460
0/
#1465
1/
b0011 4
#1470
0/
#1475
b0100 $
1/
11
b0000 4
#1480
0/
#1485
b0100 +
1/
01
b0001 4
#1490
0/
#1495
1/
b0010 4
#1500
0/
#1505
1/
b0011 4
#1510
0/
#1515
b0101 $
1/
11
b0000 4
#1520
0/
#1525
b0101 +
1/
01
b0001 4
#1530
0/
#1535
1/
b0010 4
#1540
0/
#1545
1/
b0011 4
#1550
0/
#1555
b0110 $
1/
11
b0000 4
#1560
0/
#1565
b0110 +
1/
01
b0001 4
#1570
0/
#1575
1/
b0010 4
#1580
0/
#1585
1/
b0011 4
#1590
0/
#1595
b0111 $
1/
11
b0000 4
#1600
0/
#1605
b0111 +
1/
01
b0001 4
#1610
0/
#1615
1/
b0010 4
#1620
0/
#1625
1/
b0011 4
#1630
0/
#1635
b1000 $
1/
11
b0000 4
#1640
0/
#1645
b1000 +
1/
01
b0001 4
#1650
0/
#1655
1/
b0010 4
#1660
0/
#1665
1/
b0011 4
#1670
0/
#1675
b1001 $
1/
11
b0000 4
#1680
0/
#1685
b1001 +
1/
01
b0001 4
#1690
0/
#1695
1/
b0010 4
#1700
0/
#1705
1/
b0011 4
#1710
0/
#1715
b1010 $
1/
11
b0000 4
#1720
0/
#1725
b1010 +
1/
01
b0001 4
#1730
0/
#1735
1/
b0010 4
#1740
0/
#1745
1/
b0011 4
#1750
0/
#1755
b1011 $
1/
11
b0000 4
#1760
0/
#1765
b1011 +
1/
01
b0001 4
#1770
0/
#1775
1/
b0010 4
#1780
0/
#1785
1/
b0011 4
#1790
0/
#1795
b1100 $
1/
11
b0000 4
#1800
0/
#1805
b1100 +
1/
01
b0001 4
#1810
0/
#1815
1/
b0010 4
#1820
0/
#1825
1/
b0011 4
#1830
0/
#1835
b1101 $
1/
11
b0000 4
#1840
0/
#1845
b1101 +
1/
01
b0001 4
#1850
0/
#1855
1/
b0010 4
#1860
0/
#1865
1/
b0011 4
#1870
0/
#1875
b1110 $
1/
11
b0000 4
#1880
0/
#1885
b1110 +
1/
01
b0001 4
#1890
0/
#1895
1/
b0010 4
#1900
0/
#1905
1/
b0011 4
#1910
0/
#1915
b1111 $
1/
11
b0000 4
#1920
0/
#1925
b1111 +
1/
01
b0001 4
#1930
0/
#1935
1/
b0010 4
#1940
0/
#1945
1/
b0011 4
#1950
0/
#1955
b0000 $
b010 %
b00010101 &
1/
11
b0000 4
#1960
0/
#1965
b0000 +
b010 ,
b00010101 -
1.
1/
01
b0001 4
#1970
0/
#1975
1(
1/
b0010 4
#1980
0/
#1985
1/
b0011 4
#1990
0/
#1995
b0001 $
1/
11
b0000 4
#2000
0/
#2005
b0001 +
1/
01
b0001 4
#2010
0/
#2015
1/
b0010 4
#2020
0/
#2025
1/
b0011 4
#2030
0/
#2035
b0010 $
1/
11
b0000 4
#2040
0/
#2045
b0010 +
1/
01
b0001 4
#2050
0/
#2055
1/
b0010 4
#2060
0/
#2065
1/
b0011 4
#2070
0/
#2075
b0011 $
1/
11
b0000 4
#2080
0/
#2085
b0011 +
1/
01
b0001 4
#2090
0/
#2095
1/
b0010 4
#2100
0/
#2105
1/
b0011 4
#2110
0/
#2115
b0100 $
1/
11
b0000 4
#2120
0/
#2125
b0100 +
1/
01
b0001 4
#2130
0/
#2135
1/
b0010 4
#2140
0/
#2145
1/
b0011 4
#2150
0/
#2155
b0101 $
1/
11
b0000 4
#2160
0/
#2165
b0101 +
1/
01
b0001 4
#2170
0/
#2175
1/
b0010 4
#2180
0/
#2185
1/
b0011 4
#2190
0/
#2195
b0110 $
1/
11
b0000 4
#2200
0/
#2205
b0110 +
1/
01
b0001 4
#2210
0/
#2215
1/
b0010 4
#2220
0/
#2225
1/
b0011 4
#2230
0/
#2235
b0111 $
1/
11
b0000 4
#2240
0/
#2245
b0111 +
1/
01
b0001 4
#2250
0/
#2255
1/
b0010 4
#2260
0/
#2265
1/
b0011 4
#2270
0/
#2275
b1000 $
1/
11
b0000 4
#2280
0/
#2285
b1000 +
1/
01
b0001 4
#2290
0/
#2295
1/
b0010 4
#2300
0/
#2305
1/
b0011 4
#2310
0/
#2315
b1001 $
1/
11
b0000 4
#2320
0/
#2325
b1001 +
1/
01
b0001 4
#2330
0/
#2335
1/
b0010 4
#2340
0/
#2345
1/
b0011 4
#2350
0/
#2355
b1010 $
1/
11
b0000 4
#2360
0/
#2365
b1010 +
1/
01
b0001 4
#2370
0/
#2375
1/
b0010 4
#2380
0/
#2385
1/
b0011 4
#2390
0/
#2395
b1011 $
1/
11
b0000 4
#2400
0/
#2405
b1011 +
1/
01
b0001 4
#2410
0/
#2415
1/
b0010 4
#2420
0/
#2425
1/
b0011 4
#2430
0/
#2435
b1100 $
1/
11
b0000 4
#2440
0/
#2445
b1100 +
1/
01
b0001 4
#2450
0/
#2455
1/
b0010 4
#2460
0/
#2465
1/
b0011 4
#2470
0/
#2475
b1101 $
1/
11
b0000 4
#2480
0/
#2485
b1101 +
1/
01
b0001 4
#2490
0/
#2495
1/
b0010 4
#2500
0/
#2505
1/
b0011 4
#2510
0/
#2515
b1110 $
1/
11
b0000 4
#2520
0/
#2525
b1110 +
1/
01
b0001 4
#2530
0/
#2535
1/
b0010 4
#2540
0/
#2545
1/
b0011 4
#2550
0/
#2555
b1111 $
1/
11
b0000 4
#2560
0/
#2565
b1111 +
1/
01
b0001 4
#2570
0/
#2575
1/
b0010 4
#2580
0/
#2585
1/
b0011 4
#2590
0/
#2595
b0000 $
b011 %
b00001010 &
1/
11
b0000 4
#2600
0/
#2605
b0000 +
b011 ,
b00001010 -
0.
1/
01
b0001 4
#2610
0/
#2615
0(
1/
b0010 4
#2620
0/
#2625
1/
b0011 4
#2630
0/
#2635
b0001 $
1/
11
b0000 4
#2640
0/
#2645
b0001 +
1/
01
b0001 4
#2650
0/
#2655
1/
b0010 4
#2660
0/
#2665
1/
b0011 4
#2670
0/
#2675
b0010 $
1/
11
b0000 4
#2680
0/
#2685
b0010 +
1/
01
b0001 4
#2690
0/
#2695
1/
b0010 4
#2700
0/
#2705
1/
b0011 4
#2710
0/
#2715
b0011 $
1/
11
b0000 4
#2720
0/
#2725
b0011 +
1/
01
b0001 4
#2730
0/
#2735
1/
b0010 4
#2740
0/
#2745
1/
b0011 4
#2750
0/
#2755
b0100 $
1/
11
b0000 4
#2760
0/
#2765
b0100 +
1/
01
b0001 4
#2770
0/
#2775
1/
b0010 4
#2780
0/
#2785
1/
b0011 4
#2790
0/
#2795
b0101 $
1/
11
b0000 4
#2800
0/
#2805
b0101 +
1/
01
b0001 4
#2810
0/
#2815
1/
b0010 4
#2820
0/
#2825
1/
b0011 4
#2830
0/
#2835
b0110 $
1/
11
b0000 4
#2840
0/
#2845
b0110 +
1/
01
b0001 4
#2850
0/
#2855
1/
b0010 4
#2860
0/
#2865
1/
b0011 4
#2870
0/
#2875
b0111 $
1/
11
b0000 4
#2880
0/
#2885
b0111 +
1/
01
b0001 4
#2890
0/
#2895
1/
b0010 4
#2900
0/
#2905
1/
b0011 4
#2910
0/
#2915
b1000 $
1/
11
b0000 4
#2920
0/
#2925
b1000 +
1/
01
b0001 4
#2930
0/
#2935
1/
b0010 4
#2940
0/
#2945
1/
b0011 4
#2950
0/
#2955
b1001 $
1/
11
b0000 4
#2960
0/
#2965
b1001 +
1/
01
b0001 4
#2970
0/
#2975
1/
b0010 4
#2980
0/
#2985
1/
b0011 4
#2990
0/
#2995
b1010 $
1/
11
b0000 4
#3000
0/
#3005
b1010 +
1/
01
b0001 4
#3010
0/
#3015
1/
b0010 4
#3020
0/
#3025
1/
b0011 4
#3030
0/
#3035
b1011 $
1/
11
b0000 4
#3040
0/
#3045
b1011 +
1/
01
b0001 4
#3050
0/
#3055
1/
b0010 4
#3060
0/
#3065
1/
b0011 4
#3070
0/
#3075
b1100 $
1/
11
b0000 4
#3080
0/
#3085
b1100 +
1/
01
b0001 4
#3090
0/
#3095
1/
b0010 4
#3100
0/
#3105
1/
b0011 4
#3110
0/
#3115
b1101 $
1/
11
b0000 4
#3120
0/
#3125
b1101 +
1/
01
b0001 4
#3130
0/
#3135
1/
b0010 4
#3140
0/
#3145
1/
b0011 4
#3150
0/
#3155
b1110 $
1/
11
b0000 4
#3160
0/
#3165
b1110 +
1/
01
b0001 4
#3170
0/
#3175
1/
b0010 4
#3180
0/
#3185
1/
b0011 4
#3190
0/
#3195
b1111 $
1/
11
b0000 4
#3200
0/
#3205
b1111 +
1/
01
b0001 4
#3210
0/
#3215
1/
b0010 4
#3220
0/
#3225
1/
b0011 4
#3230
0/
#3235
b0000 $
b100 %
b00000101 &
1/
11
b0000 4
#3240
0/
#3245
b0000 +
b100 ,
b00000101 -
1.
1/
01
b0001 4
#3250
0/
#3255
1(
1/
b0010 4
#3260
0/
#3265
1/
b0011 4
#3270
0/
#3275
b0001 $
1/
11
b0000 4
#3280
0/
#3285
b0001 +
1/
01
b0001 4
#3290
0/
#3295
1/
b0010 4
#3300
0/
#3305
1/
b0011 4
#3310
0/
#3315
b0010 $
1/
11
b0000 4
#3320
0/
#3325
b0010 +
1/
01
b0001 4
#3330
0/
#3335
1/
b0010 4
#3340
0/
#3345
1/
b0011 4
#3350
0/
#3355
b0011 $
1/
11
b0000 4
#3360
0/
#3365
b0011 +
1/
01
b0001 4
#3370
0/
#3375
1/
b0010 4
#3380
0/
#3385
1/
b0011 4
#3390
0/
#3395
b0100 $
1/
11
b0000 4
#3400
0/
#3405
b0100 +
1/
01
b0001 4
#3410
0/
#3415
1/
b0010 4
#3420
0/
#3425
1/
b0011 4
#3430
0/
#3435
b0101 $
1/
11
b0000 4
#3440
0/
#3445
b0101 +
1/
01
b0001 4
#3450
0/
#3455
1/
b0010 4
#3460
0/
#3465
1/
b0011 4
#3470
0/
#3475
b0110 $
1/
11
b0000 4
#3480
0/
#3485
b0110 +
1/
01
b0001 4
#3490
0/
#3495
1/
b0010 4
#3500
0/
#3505
1/
b0011 4
#3510
0/
#3515
b0111 $
1/
11
b0000 4
#3520
0/
#3525
b0111 +
1/
01
b0001 4
#3530
0/
#3535
1/
b0010 4
#3540
0/
#3545
1/
b0011 4
#3550
0/
#3555
b1000 $
1/
11
b0000 4
#3560
0/
#3565
b1000 +
1/
01
b0001 4
#3570
0/
#3575
1/
b0010 4
#3580
0/
#3585
1/
b0011 4
#3590
0/
#3595
b1001 $
1/
11
b0000 4
#3600
0/
#3605
b1001 +
1/
01
b0001 4
#3610
0/
#3615
1/
b0010 4
#3620
0/
#3625
1/
b0011 4
#3630
0/
#3635
b1010 $
1/
11
b0000 4
#3640
0/
#3645
b1010 +
1/
01
b0001 4
#3650
0/
#3655
1/
b0010 4
#3660
0/
#3665
1/
b0011 4
#3670
0/
#3675
b1011 $
1/
11
b0000 4
#3680
0/
#3685
b1011 +
1/
01
b0001 4
#3690
0/
#3695
1/
b0010 4
#3700
0/
#3705
1/
b0011 4
#3710
0/
#3715
b1100 $
1/
11
b0000 4
#3720
0/
#3725
b1100 +
1/
01
b0001 4
#3730
0/
#3735
1/
b0010 4
#3740
0/
#3745
1/
b0011 4
#3750
0/
#3755
b1101 $
1/
11
b0000 4
#3760
0/
#3765
b1101 +
1/
01
b0001 4
#3770
0/
#3775
1/
b0010 4
#3780
0/
#3785
1/
b0011 4
#3790
0/
#3795
b1110 $
1/
11
b0000 4
#3800
0/
#3805
b1110 +
1/
01
b0001 4
#3810
0/
#3815
1/
b0010 4
#3820
0/
#3825
1/
b0011 4
#3830
0/
#3835
b1111 $
1/
11
b0000 4
#3840
0/
#3845
b1111 +
1/
01
b0001 4
#3850
0/
#3855
1/
b0010 4
#3860
0/
#3865
1/
b0011 4
#3870
0/
#3875
b0000 $
b101 %
b00000010 &
1/
11
b0000 4
#3880
0/
#3885
b0000 +
b101 ,
b00000010 -
0.
1/
01
b0001 4
#3890
0/
#3895
0(
1/
b0010 4
#3900
0/
#3905
1/
b0011 4
#3910
0/
#3915
b0001 $
1/
11
b0000 4
#3920
0/
#3925
b0001 +
1/
01
b0001 4
#3930
0/
#3935
1/
b0010 4
#3940
0/
#3945
1/
b0011 4
#3950
0/
#3955
b0010 $
1/
11
b0000 4
#3960
0/
#3965
b0010 +
1/
01
b0001 4
#3970
0/
#3975
1/
b0010 4
#3980
0/
#3985
1/
b0011 4
#3990
0/
#3995
b0011 $
1/
11
b0000 4
#4000
0/
#4005
b0011 +
1/
01
b0001 4
#4010
0/
#4015
1/
b0010 4
#4020
0/
#4025
1/
b0011 4
#4030
0/
#4035
b0100 $
1/
11
b0000 4
#4040
0/
#4045
b0100 +
1/
01
b0001 4
#4050
0/
#4055
1/
b0010 4
#4060
0/
#4065
1/
b0011 4
#4070
0/
#4075
b0101 $
1/
11
b0000 4
#4080
0/
#4085
b0101 +
1/
01
b0001 4
#4090
0/
#4095
1/
b0010 4
#4100
0/
#4105
1/
b0011 4
#4110
0/
#4115
b0110 $
1/
11
b0000 4
#4120
0/
#4125
b0110 +
1/
01
b0001 4
#4130
0/
#4135
1/
b0010 4
#4140
0/
#4145
1/
b0011 4
#4150
0/
#4155
b0111 $
1/
11
b0000 4
#4160
0/
#4165
b0111 +
1/
01
b0001 4
#4170
0/
#4175
1/
b0010 4
#4180
0/
#4185
1/
b0011 4
#4190
0/
#4195
b1000 $
1/
11
b0000 4
#4200
0/
#4205
b1000 +
1/
01
b0001 4
#4210
0/
#4215
1/
b0010 4
#4220
0/
#4225
1/
b0011 4
#4230
0/
#4235
b1001 $
1/
11
b0000 4
#4240
0/
#4245
b1001 +
1/
01
b0001 4
#4250
0/
#4255
1/
b0010 4
#4260
0/
#4265
1/
b0011 4
#4270
0/
#4275
b1010 $
1/
11
b0000 4
#4280
0/
#4285
b1010 +
1/
01
b0001 4
#4290
0/
#4295
1/
b0010 4
#4300
0/
#4305
1/
b0011 4
#4310
0/
#4315
b1011 $
1/
11
b0000 4
#4320
0/
#4325
b1011 +
1/
01
b0001 4
#4330
0/
#4335
1/
b0010 4
#4340
0/
#4345
1/
b0011 4
#4350
0/
#4355
b1100 $
1/
11
b0000 4
#4360
0/
#4365
b1100 +
1/
01
b0001 4
#4370
0/
#4375
1/
b0010 4
#4380
0/
#4385
1/
b0011 4
#4390
0/
#4395
b1101 $
1/
11
b0000 4
#4400
0/
#4405
b1101 +
1/
01
b0001 4
#4410
0/
#4415
1/
b0010 4
#4420
0/
#4425
1/
b0011 4
#4430
0/
#4435
b1110 $
1/
11
b0000 4
#4440
0/
#4445
b1110 +
1/
01
b0001 4
#4450
0/
#4455
1/
b0010 4
#4460
0/
#4465
1/
b0011 4
#4470
0/
#4475
b1111 $
1/
11
b0000 4
#4480
0/
#4485
b1111 +
1/
01
b0001 4
#4490
0/
#4495
1/
b0010 4
#4500
0/
#4505
1/
b0011 4
#4510
0/
#4515
b0000 $
b110 %
b00000001 &
1/
11
b0000 4
#4520
0/
#4525
b0000 +
b110 ,
b00000001 -
1.
1/
01
b0001 4
#4530
0/
#4535
1(
1/
b0010 4
#4540
0/
#4545
1/
b0011 4
#4550
0/
#4555
b0001 $
1/
11
b0000 4
#4560
0/
#4565
b0001 +
1/
01
b0001 4
#4570
0/
#4575
1/
b0010 4
#4580
0/
#4585
1/
b0011 4
#4590
0/
#4595
b0010 $
1/
11
b0000 4
#4600
0/
#4605
b0010 +
1/
01
b0001 4
#4610
0/
#4615
1/
b0010 4
#4620
0/
#4625
1/
b0011 4
#4630
0/
#4635
b0011 $
1/
11
b0000 4
#4640
0/
#4645
b0011 +
1/
01
b0001 4
#4650
0/
#4655
1/
b0010 4
#4660
0/
#4665
1/
b0011 4
#4670
0/
#4675
b0100 $
1/
11
b0000 4
#4680
0/
#4685
b0100 +
1/
01
b0001 4
#4690
0/
#4695
1/
b0010 4
#4700
0/
#4705
1/
b0011 4
#4710
0/
#4715
b0101 $
1/
11
b0000 4
#4720
0/
#4725
b0101 +
1/
01
b0001 4
#4730
0/
#4735
1/
b0010 4
#4740
0/
#4745
1/
b0011 4
#4750
0/
#4755
b0110 $
1/
11
b0000 4
#4760
0/
#4765
b0110 +
1/
01
b0001 4
#4770
0/
#4775
1/
b0010 4
#4780
0/
#4785
1/
b0011 4
#4790
0/
#4795
b0111 $
1/
11
b0000 4
#4800
0/
#4805
b0111 +
1/
01
b0001 4
#4810
0/
#4815
1/
b0010 4
#4820
0/
#4825
1/
b0011 4
#4830
0/
#4835
b1000 $
1/
11
b0000 4
#4840
0/
#4845
b1000 +
1/
01
b0001 4
#4850
0/
#4855
1/
b0010 4
#4860
0/
#4865
1/
b0011 4
#4870
0/
#4875
b1001 $
1/
11
b0000 4
#4880
0/
#4885
b1001 +
1/
01
b0001 4
#4890
0/
#4895
1/
b0010 4
#4900
0/
#4905
1/
b0011 4
#4910
0/
#4915
b1010 $
1/
11
b0000 4
#4920
0/
#4925
b1010 +
1/
01
b0001 4
#4930
0/
#4935
1/
b0010 4
#4940
0/
#4945
1/
b0011 4
#4950
0/
#4955
b1011 $
1/
11
b0000 4
#4960
0/
#4965
b1011 +
1/
01
b0001 4
#4970
0/
#4975
1/
b0010 4
#4980
0/
#4985
1/
b0011 4
#4990
0/
#4995
b1100 $
1/
11
b0000 4
#5000
0/
#5005
b1100 +
1/
01
b0001 4
#5010
0/
#5015
1/
b0010 4
#5020
0/
#5025
1/
b0011 4
#5030
0/
#5035
b1101 $
1/
11
b0000 4
#5040
0/
#5045
b1101 +
1/
01
b0001 4
#5050
0/
#5055
1/
b0010 4
#5060
0/
#5065
1/
b0011 4
#5070
0/
#5075
b1110 $
1/
11
b0000 4
#5080
0/
#5085
b1110 +
1/
01
b0001 4
#5090
0/
#5095
1/
b0010 4
#5100
0/
#5105
1/
b0011 4
#5110
0/
#5115
b1111 $
1/
11
b0000 4
#5120
0/
#5125
b1111 +
1/
01
b0001 4
#5130
0/
#5135
1/
b0010 4
#5140
0/
#5145
1/
b0011 4
#5150
0/
#5155
b0000 $
b111 %
b00000000 &
1/
11
b0000 4
#5160
0/
#5165
b0000 +
b111 ,
b00000000 -
0.
1/
01
b0001 4
#5170
0/
#5175
0(
1/
b0010 4
#5180
0/
#5185
1/
b0011 4
#5190
0/
#5195
b0001 $
1/
11
b0000 4
#5200
0/
#5205
b0001 +
1/
01
b0001 4
#5210
0/
#5215
1/
b0010 4
#5220
0/
#5225
1/
b0011 4
#5230
0/
#5235
b0010 $
1/
11
b0000 4
#5240
0/
#5245
b0010 +
1/
01
b0001 4
#5250
0/
#5255
1/
b0010 4
#5260
0/
#5265
1/
b0011 4
#5270
0/
#5275
b0011 $
1/
11
b0000 4
#5280
0/
#5285
b0011 +
1/
01
b0001 4
#5290
0/
#5295
1/
b0010 4
#5300
0/
#5305
1/
b0011 4
#5310
0/
#5315
b0100 $
1/
11
b0000 4
#5320
0/
#5325
b0100 +
1/
01
b0001 4
#5330
0/
#5335
1/
b0010 4
#5340
0/
#5345
1/
b0011 4
#5350
0/
#5355
b0101 $
1/
11
b0000 4
#5360
0/
#5365
b0101 +
1/
01
b0001 4
#5370
0/
#5375
1/
b0010 4
#5380
0/
#5385
1/
b0011 4
#5390
0/
#5395
b0110 $
1/
11
b0000 4
#5400
0/
#5405
b0110 +
1/
01
b0001 4
#5410
0/
#5415
1/
b0010 4
#5420
0/
#5425
1/
b0011 4
#5430
0/
#5435
b0111 $
1/
11
b0000 4
#5440
0/
#5445
b0111 +
1/
01
b0001 4
#5450
0/
#5455
1/
b0010 4
#5460
0/
#5465
1/
b0011 4
#5470
0/
#5475
b1000 $
1/
11
b0000 4
#5480
0/
#5485
b1000 +
1/
01
b0001 4
#5490
0/
#5495
1/
b0010 4
#5500
0/
#5505
1/
b0011 4
#5510
0/
#5515
b1001 $
1/
11
b0000 4
#5520
0/
#5525
b1001 +
1/
01
b0001 4
#5530
0/
#5535
1/
b0010 4
#5540
0/
#5545
1/
b0011 4
#5550
0/
#5555
b1010 $
1/
11
b0000 4
#5560
0/
#5565
b1010 +
1/
01
b0001 4
#5570
0/
#5575
1/
b0010 4
#5580
0/
#5585
1/
b0011 4
#5590
0/
#5595
b1011 $
1/
11
b0000 4
#5600
0/
#5605
b1011 +
1/
01
b0001 4
#5610
0/
#5615
1/
b0010 4
#5620
0/
#5625
1/
b0011 4
#5630
0/
#5635
b1100 $
1/
11
b0000 4
#5640
0/
#5645
b1100 +
1/
01
b0001 4
#5650
0/
#5655
1/
b0010 4
#5660
0/
#5665
1/
b0011 4
#5670
0/
#5675
b1101 $
1/
11
b0000 4
#5680
0/
#5685
b1101 +
1/
01
b0001 4
#5690
0/
#5695
1/
b0010 4
#5700
0/
#5705
1/
b0011 4
#5710
0/
#5715
b1110 $
1/
11
b0000 4
#5720
0/
#5725
b1110 +
1/
01
b0001 4
#5730
0/
#5735
1/
b0010 4
#5740
0/
#5745
1/
b0011 4
#5750
0/
#5755
b1111 $
1/
11
b0000 4
#5760
0/
#5765
b1111 +
1/
01
b0001 4
#5770
0/
#5775
1/
b0010 4
#5780
0/
#5785
1/
b0011 4
#5790
0/
#5795
b11 #
b0000 $
b000 %
1/
11
b0000 4
#5800
0/
#5805
b11 *
b0000 +
b000 ,
1.
1/
01
b0001 4
#5810
0/
#5815
1(
1/
b0010 4
#5820
0/
#5825
1/
b0011 4
#5830
0/
#5835
b0001 $
1/
11
b0000 4
#5840
0/
#5845
b0001 +
1/
01
b0001 4
#5850
0/
#5855
1/
b0010 4
#5860
0/
#5865
1/
b0011 4
#5870
0/
#5875
b0010 $
1/
11
b0000 4
#5880
0/
#5885
b0010 +
1/
01
b0001 4
#5890
0/
#5895
1/
b0010 4
#5900
0/
#5905
1/
b0011 4
#5910
0/
#5915
b0011 $
1/
11
b0000 4
#5920
0/
